<?xml version="1.0" encoding="UTF-8"?>
									<kml xmlns="http://www.opengis.net/kml/2.2" xmlns:gx="http://www.google.com/kml/ext/2.2" xmlns:kml="http://www.opengis.net/kml/2.2" xmlns:atom="http://www.w3.org/2005/Atom">
									<Document>
										<name>StraboSpot Data</name>

										<StyleMap id="m_strabo_point">
											<Pair>
												<key>normal</key>
												<styleUrl>#s_strabo_point</styleUrl>
											</Pair>
											<Pair>
												<key>highlight</key>
												<styleUrl>#s_strabo_point_hl</styleUrl>
											</Pair>
										</StyleMap>


										<Style id="s_strabo_point">
											<IconStyle>
												<scale>1.7</scale>
												<Icon>
													<href>files/dot.png</href>
												</Icon>
												<hotSpot x="50" y="50" xunits="pixels" yunits="pixels"/>
												<heading>360</heading>
											</IconStyle>
											<LineStyle>
												<color>ff000000</color>
												<width>1.5</width>
											</LineStyle>
											<PolyStyle>
												<color>4bDC7878</color>
											</PolyStyle>
										</Style>

										<Style id="s_strabo_point_hl">
											<IconStyle>
												<scale>1.9</scale>
												<Icon>
													<href>files/dot.png</href>
												</Icon>
												<hotSpot x="50" y="50" xunits="pixels" yunits="pixels"/>
												<heading>360</heading>
											</IconStyle>
											<LineStyle>
												<color>ff000000</color>
												<width>1.5</width>
											</LineStyle>
											<PolyStyle>
												<color>64DC7878</color>
											</PolyStyle>
											<BalloonStyle>
												<text><![CDATA[
																<html><head>
										<style type="text/css">
											html{
												margin:0px;
												padding:0px;
											}
											body{
												margin:2px;
												font-family: 'Open sans', sans-serif;
												font-size: 13px;
												color: #666666;
												background-color: #ffffff;
												width:700px;
											}
											.spotTitle{
												font-weight:bold;
												font-size:15px;
											}
											.leftPad{
												padding-left:20px;
											}
											.sectionTitle{
												text-decoration:underline;
											}
										</style>
										</head>
										<body>$[description]</body>
									</html>
												]]></text>
											</BalloonStyle>
										</Style>


										<StyleMap id="m_strabo_line">
											<Pair>
												<key>normal</key>
												<styleUrl>#s_strabo_line</styleUrl>
											</Pair>
											<Pair>
												<key>highlight</key>
												<styleUrl>#s_strabo_line_hl</styleUrl>
											</Pair>
										</StyleMap>


										<Style id="s_strabo_line">
											<LineStyle>
												<color>ff000000</color>
												<width>2</width>
											</LineStyle>
										</Style>

										<Style id="s_strabo_line_hl">
											<LineStyle>
												<color>ff000000</color>
												<width>4</width>
											</LineStyle>
											<BalloonStyle>
												<text><![CDATA[
																<html><head>
										<style type="text/css">
											html{
												margin:0px;
												padding:0px;
											}
											body{
												margin:2px;
												font-family: 'Open sans', sans-serif;
												font-size: 13px;
												color: #666666;
												background-color: #ffffff;
												width:700px;
											}
											.spotTitle{
												font-weight:bold;
												font-size:15px;
											}
											.leftPad{
												padding-left:20px;
											}
											.sectionTitle{
												text-decoration:underline;
											}
										</style>
										</head>
										<body>$[description]</body>
									</html>
												]]></text>
											</BalloonStyle>
										</Style>


										<StyleMap id="m_strabo_polygon">
											<Pair>
												<key>normal</key>
												<styleUrl>#s_strabo_polygon</styleUrl>
											</Pair>
											<Pair>
												<key>highlight</key>
												<styleUrl>#s_strabo_polygon_hl</styleUrl>
											</Pair>
										</StyleMap>


										<Style id="s_strabo_polygon">
											<LineStyle>
												<color>ff000000</color>
												<width>1.5</width>
											</LineStyle>
											<PolyStyle>
												<color>4bDC7878</color>
											</PolyStyle>
										</Style>

										<Style id="s_strabo_polygon_hl">
											<LineStyle>
												<color>ff000000</color>
												<width>1.5</width>
											</LineStyle>
											<PolyStyle>
												<color>641478FF</color>
											</PolyStyle>
											<BalloonStyle>
												<text><![CDATA[
																<html><head>
										<style type="text/css">
											html{
												margin:0px;
												padding:0px;
											}
											body{
												margin:2px;
												font-family: 'Open sans', sans-serif;
												font-size: 13px;
												color: #666666;
												background-color: #ffffff;
												width:700px;
											}
											.spotTitle{
												font-weight:bold;
												font-size:15px;
											}
											.leftPad{
												padding-left:20px;
											}
											.sectionTitle{
												text-decoration:underline;
											}
										</style>
										</head>
										<body>$[description]</body>
									</html>
												]]></text>
											</BalloonStyle>
										</Style>

										<Folder>
											<name>Strabo Data</name>
											<open>1</open>
											<Style>
												<ListStyle>
													<listItemType>check</listItemType>
													<ItemIcon>
														<state>open</state>
														<href>files/mysavedplaces_open.png</href>
													</ItemIcon>
													<ItemIcon>
														<state>closed</state>
														<href>files/mysavedplaces_closed.png</href>
													</ItemIcon>
													<bgColor>14F0C814</bgColor>
													<maxSnippetLines>0</maxSnippetLines>
												</ListStyle>
											</Style>
									<Placemark>
<name>Castellote</name>
<description>
<![CDATA[
<img style="max-width:300px;" src="files/bubblehead.jpg">
<div class="spotTitle">Spot Name: Castellote</div>
<br>
<div>Created: 2020-07-29T05:12:01+00:00</div>
<div>Last Modified: 2020-07-29T05:12:18+00:00</div>
]]>
</description>
<styleUrl>#m_strabo_point</styleUrl>
<Point><coordinates>-0.319405,40.799461</coordinates></Point>
</Placemark>

<Placemark>
<name>Eastern end</name>
<description>
<![CDATA[
<img style="max-width:300px;" src="files/bubblehead.jpg">
<div class="spotTitle">Spot Name: Eastern end</div>
<br>
<div>Created: 2020-07-29T05:13:27+00:00</div>
<div>Last Modified: 2020-07-29T05:13:49+00:00</div>
]]>
</description>
<styleUrl>#m_strabo_point</styleUrl>
<Point><coordinates>-0.388643,40.81279</coordinates></Point>
</Placemark>

<Placemark>
<name>15960067118008</name>
<description>
<![CDATA[
<img style="max-width:300px;" src="files/bubblehead.jpg">
<div class="spotTitle">Spot Name: 15960067118008</div>
<br>
<div>Created: 2020-07-29T07:11:51+00:00</div>
<div>Last Modified: 2020-07-29T07:13:41+00:00</div>
<div>Images:</div>
<div class="leftPad">
<div class="sectionTitle">15960067755127: </div>
<div>Width: 4000</div>
<div>Caption: Brecciazted k2</div>
<div>Image Type: Photo</div>
<div>Height: 3000</div>
<div>View Azimuth Trend: 260</div>
<div><a href="https://www.strabospot.org/geimage/15960067755127"><img src="files/15960067755127.jpg"></a></div>
</div>
]]>
</description>
<styleUrl>#m_strabo_point</styleUrl>
<Point><coordinates>-0.392419,40.81287</coordinates></Point>
</Placemark>

<Placemark>
<name>15960073039241</name>
<description>
<![CDATA[
<img style="max-width:300px;" src="files/bubblehead.jpg">
<div class="spotTitle">Spot Name: 15960073039241</div>
<br>
<div>Created: 2020-07-29T07:21:43+00:00</div>
<div>Last Modified: 2020-07-29T07:28:37+00:00</div>
<div>Images:</div>
<div class="leftPad">
<div class="sectionTitle">15960073146694: </div>
<div>Width: 4000</div>
<div>Image Type: Photo</div>
<div>Height: 3000</div>
<div>View Azimuth Trend: 210</div>
<div><a href="https://www.strabospot.org/geimage/15960073146694"><img src="files/15960073146694.jpg"></a></div>
<div class="sectionTitle">15960073314088: </div>
<div>Width: 4000</div>
<div>Image Type: Photo</div>
<div>Height: 3000</div>
<div>View Azimuth Trend: 270</div>
<div><a href="https://www.strabospot.org/geimage/15960073314088"><img src="files/15960073314088.jpg"></a></div>
<div class="sectionTitle">15960073560168: </div>
<div>Width: 4000</div>
<div>Image Type: Photo</div>
<div>Height: 3000</div>
<div>View Azimuth Trend: 90</div>
<div><a href="https://www.strabospot.org/geimage/15960073560168"><img src="files/15960073560168.jpg"></a></div>
<div class="sectionTitle">15960073484122: </div>
<div>Width: 4000</div>
<div>Image Type: Photo</div>
<div>Height: 3000</div>
<div>View Azimuth Trend: 90</div>
<div><a href="https://www.strabospot.org/geimage/15960073484122"><img src="files/15960073484122.jpg"></a></div>
<div class="sectionTitle">15960073710932: </div>
<div>Width: 4000</div>
<div>Height: 3000</div>
<div>Image Type: Photo</div>
<div><a href="https://www.strabospot.org/geimage/15960073710932"><img src="files/15960073710932.jpg"></a></div>
</div>
]]>
</description>
<styleUrl>#m_strabo_point</styleUrl>
<Point><coordinates>-0.393664,40.812272</coordinates></Point>
</Placemark>

<Placemark>
<name>Ku</name>
<description>
<![CDATA[
<img style="max-width:300px;" src="files/bubblehead.jpg">
<div class="spotTitle">Spot Name: Ku</div>
<br>
<div>Created: 2020-07-29T07:37:47+00:00</div>
<div>Last Modified: 2020-07-29T07:38:33+00:00</div>
]]>
</description>
<styleUrl>#m_strabo_point</styleUrl>
<Point><coordinates>-0.395283,40.811808</coordinates></Point>
</Placemark>

<Placemark>
<name>15960083772035</name>
<description>
<![CDATA[
<img style="max-width:300px;" src="files/bubblehead.jpg">
<div class="spotTitle">Spot Name: 15960083772035</div>
<br>
<div>Created: 2020-07-29T07:39:37+00:00</div>
<div>Last Modified: 2020-07-29T07:43:47+00:00</div>
<div>Orientations:</div>
<div class="leftPad">
<div class="sectionTitle">Planar Orientation: </div>
<div>Strike: 92</div>
<div>Dip Direction: 182</div>
<div>Dip: 48</div>
<div>Quality: 3</div>
<div>Feature Type: Bedding</div>
<div>Label: Bedding 92</div>
</div>
<div>Images:</div>
<div class="leftPad">
<div class="sectionTitle">15960085883495: </div>
<div>Width: 3000</div>
<div>Image Type: Photo</div>
<div>Height: 4000</div>
<div>View Azimuth Trend: 150</div>
<div><a href="https://www.strabospot.org/geimage/15960085883495"><img src="files/15960085883495.jpg"></a></div>
</div>
]]>
</description>
<styleUrl>#m_strabo_point</styleUrl><Style><IconStyle><Icon><href>files/15960083772035.png</href></Icon></IconStyle></Style>
<Point><coordinates>-0.395143,40.811805</coordinates></Point>
</Placemark>

<Placemark>
<name>15960087774086</name>
<description>
<![CDATA[
<img style="max-width:300px;" src="files/bubblehead.jpg">
<div class="spotTitle">Spot Name: 15960087774086</div>
<br>
<div>Created: 2020-07-29T07:46:17+00:00</div>
<div>Last Modified: 2020-07-29T07:49:46+00:00</div>
<div>Orientations:</div>
<div class="leftPad">
<div class="sectionTitle">Planar Orientation: </div>
<div>Strike: 100</div>
<div>Dip Direction: 190</div>
<div>Dip: 43</div>
<div>Quality: 4</div>
<div>Feature Type: Bedding</div>
<div>Label: Bedding 100</div>
</div>
<div>Images:</div>
<div class="leftPad">
<div class="sectionTitle">15960089588509: </div>
<div>Width: 3000</div>
<div>Image Type: Photo</div>
<div>Height: 4000</div>
<div>View Azimuth Trend: 320</div>
<div><a href="https://www.strabospot.org/geimage/15960089588509"><img src="files/15960089588509.jpg"></a></div>
<div class="sectionTitle">15960089136813: </div>
<div>Width: 13888</div>
<div>Height: 3584</div>
<div>Image Type: Photo</div>
<div><a href="https://www.strabospot.org/geimage/15960089136813"><img src="files/15960089136813.jpg"></a></div>
</div>
]]>
</description>
<styleUrl>#m_strabo_point</styleUrl><Style><IconStyle><Icon><href>files/15960087774086.png</href></Icon></IconStyle></Style>
<Point><coordinates>-0.395004,40.811673</coordinates></Point>
</Placemark>

<Placemark>
<name>15960093938306</name>
<description>
<![CDATA[
<img style="max-width:300px;" src="files/bubblehead.jpg">
<div class="spotTitle">Spot Name: 15960093938306</div>
<br>
<div>Created: 2020-07-29T07:56:33+00:00</div>
<div>Last Modified: 2020-07-29T07:57:09+00:00</div>
]]>
</description>
<styleUrl>#m_strabo_point</styleUrl>
<Point><coordinates>-0.395501,40.810973</coordinates></Point>
</Placemark>

<Placemark>
<name>15960095397239</name>
<description>
<![CDATA[
<img style="max-width:300px;" src="files/bubblehead.jpg">
<div class="spotTitle">Spot Name: 15960095397239</div>
<br>
<div>Created: 2020-07-29T07:58:59+00:00</div>
<div>Last Modified: 2020-07-29T08:01:46+00:00</div>
<div>Orientations:</div>
<div class="leftPad">
<div class="sectionTitle">Planar Orientation: </div>
<div>Strike: 78</div>
<div>Dip Direction: 168</div>
<div>Dip: 37</div>
<div>Quality: 4</div>
<div>Feature Type: Bedding</div>
<div>Label: Bedding 78</div>
</div>
<div>Images:</div>
<div class="leftPad">
<div class="sectionTitle">15960096815516: </div>
<div>Width: 3000</div>
<div>Image Type: Photo</div>
<div>Height: 4000</div>
<div>View Azimuth Trend: 175</div>
<div><a href="https://www.strabospot.org/geimage/15960096815516"><img src="files/15960096815516.jpg"></a></div>
<div class="sectionTitle">15960096404213: </div>
<div>Width: 14016</div>
<div>Image Type: Photo</div>
<div>Height: 3392</div>
<div>View Azimuth Trend: 340</div>
<div><a href="https://www.strabospot.org/geimage/15960096404213"><img src="files/15960096404213.jpg"></a></div>
</div>
]]>
</description>
<styleUrl>#m_strabo_point</styleUrl><Style><IconStyle><Icon><href>files/15960095397239.png</href></Icon></IconStyle></Style>
<Point><coordinates>-0.395234,40.811243</coordinates></Point>
</Placemark>

<Placemark>
<name>15960098399678</name>
<description>
<![CDATA[
<img style="max-width:300px;" src="files/bubblehead.jpg">
<div class="spotTitle">Spot Name: 15960098399678</div>
<br>
<div>Created: 2020-07-29T08:03:59+00:00</div>
<div>Last Modified: 2020-07-29T08:09:08+00:00</div>
<div>Images:</div>
<div class="leftPad">
<div class="sectionTitle">15960099855372: </div>
<div>Width: 3000</div>
<div>Height: 4000</div>
<div>Image Type: Photo</div>
<div><a href="https://www.strabospot.org/geimage/15960099855372"><img src="files/15960099855372.jpg"></a></div>
<div class="sectionTitle">15960099303742: </div>
<div>Width: 4000</div>
<div>Height: 3000</div>
<div>Image Type: Photo</div>
<div><a href="https://www.strabospot.org/geimage/15960099303742"><img src="files/15960099303742.jpg"></a></div>
<div class="sectionTitle">15960099232381: </div>
<div>Width: 4000</div>
<div>Height: 3000</div>
<div>Image Type: Photo</div>
<div><a href="https://www.strabospot.org/geimage/15960099232381"><img src="files/15960099232381.jpg"></a></div>
<div class="sectionTitle">15960099110503: </div>
<div>Width: 4000</div>
<div>Height: 3000</div>
<div>Image Type: Photo</div>
<div><a href="https://www.strabospot.org/geimage/15960099110503"><img src="files/15960099110503.jpg"></a></div>
<div class="sectionTitle">15960099034352: </div>
<div>Width: 4000</div>
<div>Height: 3000</div>
<div>Image Type: Photo</div>
<div><a href="https://www.strabospot.org/geimage/15960099034352"><img src="files/15960099034352.jpg"></a></div>
<div class="sectionTitle">15960098959959: </div>
<div>Width: 4000</div>
<div>Height: 3000</div>
<div>Image Type: Photo</div>
<div><a href="https://www.strabospot.org/geimage/15960098959959"><img src="files/15960098959959.jpg"></a></div>
</div>
]]>
</description>
<styleUrl>#m_strabo_point</styleUrl>
<Point><coordinates>-0.395392,40.811035</coordinates></Point>
</Placemark>

<Placemark>
<name>15960101505112</name>
<description>
<![CDATA[
<img style="max-width:300px;" src="files/bubblehead.jpg">
<div class="spotTitle">Spot Name: 15960101505112</div>
<br>
<div>Created: 2020-07-29T08:09:10+00:00</div>
<div>Last Modified: 2020-07-29T08:11:53+00:00</div>
<div>Orientations:</div>
<div class="leftPad">
<div class="sectionTitle">Planar Orientation: </div>
<div>Strike: 85</div>
<div>Dip Direction: 175</div>
<div>Dip: 33</div>
<div>Quality: 3</div>
<div>Feature Type: Bedding</div>
<div>Label: Bedding 57</div>
</div>
<div>Images:</div>
<div class="leftPad">
<div class="sectionTitle">15960101914663: </div>
<div>Width: 3000</div>
<div>Image Type: Photo</div>
<div>Height: 4000</div>
<div>View Azimuth Trend: 185</div>
<div><a href="https://www.strabospot.org/geimage/15960101914663"><img src="files/15960101914663.jpg"></a></div>
</div>
]]>
</description>
<styleUrl>#m_strabo_point</styleUrl><Style><IconStyle><Icon><href>files/15960101505112.png</href></Icon></IconStyle></Style>
<Point><coordinates>-0.395561,40.810921</coordinates></Point>
</Placemark>

<Placemark>
<name>15960104408836</name>
<description>
<![CDATA[
<img style="max-width:300px;" src="files/bubblehead.jpg">
<div class="spotTitle">Spot Name: 15960104408836</div>
<br>
<div>Created: 2020-07-29T08:14:00+00:00</div>
<div>Last Modified: 2020-07-29T08:15:29+00:00</div>
<div>Orientations:</div>
<div class="leftPad">
<div class="sectionTitle">Planar Orientation: </div>
<div>Strike: 249</div>
<div>Dip Direction: 339</div>
<div>Dip: 53</div>
<div>Quality: 3</div>
<div>Feature Type: Bedding</div>
<div>Label: Bedding 249</div>
</div>
]]>
</description>
<styleUrl>#m_strabo_point</styleUrl><Style><IconStyle><Icon><href>files/15960104408836.png</href></Icon></IconStyle></Style>
<Point><coordinates>-0.395463,40.811058</coordinates></Point>
</Placemark>

<Placemark>
<name>Top</name>
<description>
<![CDATA[
<img style="max-width:300px;" src="files/bubblehead.jpg">
<div class="spotTitle">Spot Name: Top</div>
<br>
<div>Created: 2020-07-29T08:18:40+00:00</div>
<div>Last Modified: 2020-07-29T08:26:56+00:00</div>
<div>Orientations:</div>
<div class="leftPad">
<div class="sectionTitle">Planar Orientation: </div>
<div>Strike: 241</div>
<div>Dip Direction: 331</div>
<div>Dip: 79</div>
<div>Quality: 2</div>
<div>Feature Type: Bedding</div>
<div>Label: Bedding 241</div>
</div>
<div>Images:</div>
<div class="leftPad">
<div class="sectionTitle">15960111489384: </div>
<div>Width: 3000</div>
<div>Height: 4000</div>
<div>Image Type: Photo</div>
<div><a href="https://www.strabospot.org/geimage/15960111489384"><img src="files/15960111489384.jpg"></a></div>
<div class="sectionTitle">15960110195912: </div>
<div>Width: 13568</div>
<div>Height: 3840</div>
<div>Image Type: Photo</div>
<div><a href="https://www.strabospot.org/geimage/15960110195912"><img src="files/15960110195912.jpg"></a></div>
<div class="sectionTitle">15960109002425: </div>
<div>Width: 13504</div>
<div>Image Type: Photo</div>
<div>Height: 3776</div>
<div>View Azimuth Trend: 210</div>
<div><a href="https://www.strabospot.org/geimage/15960109002425"><img src="files/15960109002425.jpg"></a></div>
<div class="sectionTitle">15960108784378: </div>
<div>Width: 13632</div>
<div>Image Type: Photo</div>
<div>Height: 3520</div>
<div>View Azimuth Trend: 320</div>
<div><a href="https://www.strabospot.org/geimage/15960108784378"><img src="files/15960108784378.jpg"></a></div>
</div>
]]>
</description>
<styleUrl>#m_strabo_point</styleUrl><Style><IconStyle><Icon><href>files/15960107206323.png</href></Icon></IconStyle></Style>
<Point><coordinates>-0.396845,40.809618</coordinates></Point>
</Placemark>

<Placemark>
<name>15960115894208</name>
<description>
<![CDATA[
<img style="max-width:300px;" src="files/bubblehead.jpg">
<div class="spotTitle">Spot Name: 15960115894208</div>
<br>
<div>Created: 2020-07-29T08:33:09+00:00</div>
<div>Last Modified: 2020-07-29T08:44:43+00:00</div>
<div>Orientations:</div>
<div class="leftPad">
<div class="sectionTitle">Planar Orientation: </div>
<div>Strike: 248</div>
<div>Dip Direction: 338</div>
<div>Dip: 57</div>
<div>Quality: 1</div>
<div>Feature Type: Bedding</div>
<div>Label: Bedding 248</div>
</div>
<div>Images:</div>
<div class="leftPad">
<div class="sectionTitle">15960120306814: </div>
<div>Width: 13568</div>
<div>Image Type: Photo</div>
<div>Height: 3840</div>
<div>View Azimuth Trend: 350</div>
<div><a href="https://www.strabospot.org/geimage/15960120306814"><img src="files/15960120306814.jpg"></a></div>
<div class="sectionTitle">15960119581295: </div>
<div>Width: 13568</div>
<div>Image Type: Photo</div>
<div>Height: 3648</div>
<div>View Azimuth Trend: 280</div>
<div><a href="https://www.strabospot.org/geimage/15960119581295"><img src="files/15960119581295.jpg"></a></div>
<div class="sectionTitle">15960118882474: </div>
<div>Width: 4000</div>
<div>Image Type: Photo</div>
<div>Height: 3000</div>
<div>View Azimuth Trend: 280</div>
<div><a href="https://www.strabospot.org/geimage/15960118882474"><img src="files/15960118882474.jpg"></a></div>
<div class="sectionTitle">15960118300223: </div>
<div>Width: 4000</div>
<div>Image Type: Photo</div>
<div>Height: 3000</div>
<div>View Azimuth Trend: 160</div>
<div><a href="https://www.strabospot.org/geimage/15960118300223"><img src="files/15960118300223.jpg"></a></div>
<div class="sectionTitle">15960117979696: </div>
<div>Width: 4000</div>
<div>Image Type: Photo</div>
<div>Height: 3000</div>
<div>View Azimuth Trend: 55</div>
<div><a href="https://www.strabospot.org/geimage/15960117979696"><img src="files/15960117979696.jpg"></a></div>
<div class="sectionTitle">15960117743928: </div>
<div>Width: 4000</div>
<div>Image Type: Photo</div>
<div>Height: 3000</div>
<div>View Azimuth Trend: 20</div>
<div><a href="https://www.strabospot.org/geimage/15960117743928"><img src="files/15960117743928.jpg"></a></div>
<div class="sectionTitle">15960117337803: </div>
<div>Width: 4000</div>
<div>Image Type: Photo</div>
<div>Height: 3000</div>
<div>View Azimuth Trend: 310</div>
<div><a href="https://www.strabospot.org/geimage/15960117337803"><img src="files/15960117337803.jpg"></a></div>
</div>
]]>
</description>
<styleUrl>#m_strabo_point</styleUrl><Style><IconStyle><Icon><href>files/15960115894208.png</href></Icon></IconStyle></Style>
<Point><coordinates>-0.39835,40.808832</coordinates></Point>
</Placemark>

<Placemark>
<name>15960123289142</name>
<description>
<![CDATA[
<img style="max-width:300px;" src="files/bubblehead.jpg">
<div class="spotTitle">Spot Name: 15960123289142</div>
<br>
<div>Created: 2020-07-29T08:45:28+00:00</div>
<div>Last Modified: 2020-07-29T08:47:35+00:00</div>
<div>Images:</div>
<div class="leftPad">
<div class="sectionTitle">15960124203690: </div>
<div>Width: 3000</div>
<div>Height: 4000</div>
<div>Image Type: Photo</div>
<div><a href="https://www.strabospot.org/geimage/15960124203690"><img src="files/15960124203690.jpg"></a></div>
</div>
]]>
</description>
<styleUrl>#m_strabo_point</styleUrl>
<Point><coordinates>-0.398972,40.808932</coordinates></Point>
</Placemark>

<Placemark>
<name>15960125462927</name>
<description>
<![CDATA[
<img style="max-width:300px;" src="files/bubblehead.jpg">
<div class="spotTitle">Spot Name: 15960125462927</div>
<br>
<div>Created: 2020-07-29T08:49:06+00:00</div>
<div>Last Modified: 2020-07-29T08:54:11+00:00</div>
<div>Orientations:</div>
<div class="leftPad">
<div class="sectionTitle">Planar Orientation: </div>
<div>Dip Direction: 270</div>
<div>Dip: 75</div>
<div>Strike: 180</div>
<div>Quality: 1</div>
<div>Feature Type: Bedding</div>
<div>Label: Bedding 180</div>
</div>
<div>Images:</div>
<div class="leftPad">
<div class="sectionTitle">15960127745250: </div>
<div>Width: 3000</div>
<div>Image Type: Photo</div>
<div>Height: 4000</div>
<div>View Azimuth Trend: 250</div>
<div><a href="https://www.strabospot.org/geimage/15960127745250"><img src="files/15960127745250.jpg"></a></div>
</div>
]]>
</description>
<styleUrl>#m_strabo_point</styleUrl><Style><IconStyle><Icon><href>files/15960125462927.png</href></Icon></IconStyle></Style>
<Point><coordinates>-0.398548,40.808887</coordinates></Point>
</Placemark>

<Placemark>
<name>15960133106110</name>
<description>
<![CDATA[
<img style="max-width:300px;" src="files/bubblehead.jpg">
<div class="spotTitle">Spot Name: 15960133106110</div>
<br>
<div>Created: 2020-07-29T09:01:50+00:00</div>
<div>Last Modified: 2020-07-29T09:02:22+00:00</div>
]]>
</description>
<styleUrl>#m_strabo_point</styleUrl>
<Point><coordinates>-0.400864,40.809431</coordinates></Point>
</Placemark>

<Placemark>
<name>15960138021991</name>
<description>
<![CDATA[
<img style="max-width:300px;" src="files/bubblehead.jpg">
<div class="spotTitle">Spot Name: 15960138021991</div>
<br>
<div>Created: 2020-07-29T09:10:02+00:00</div>
<div>Last Modified: 2020-07-29T09:10:36+00:00</div>
]]>
</description>
<styleUrl>#m_strabo_point</styleUrl>
<Point><coordinates>-0.400688,40.808981</coordinates></Point>
</Placemark>

<Placemark>
<name>15960139722212</name>
<description>
<![CDATA[
<img style="max-width:300px;" src="files/bubblehead.jpg">
<div class="spotTitle">Spot Name: 15960139722212</div>
<br>
<div>Created: 2020-07-29T09:12:52+00:00</div>
<div>Last Modified: 2020-07-29T09:17:26+00:00</div>
<div>Images:</div>
<div class="leftPad">
<div class="sectionTitle">15960142160184: </div>
<div>Width: 13632</div>
<div>Image Type: Photo</div>
<div>Height: 3776</div>
<div>View Azimuth Trend: 20</div>
<div><a href="https://www.strabospot.org/geimage/15960142160184"><img src="files/15960142160184.jpg"></a></div>
<div class="sectionTitle">15960141458477: </div>
<div>Width: 4000</div>
<div>Image Type: Photo</div>
<div>Height: 3000</div>
<div>View Azimuth Trend: 80</div>
<div><a href="https://www.strabospot.org/geimage/15960141458477"><img src="files/15960141458477.jpg"></a></div>
<div class="sectionTitle">15960141115403: </div>
<div>Width: 4000</div>
<div>View Azimuth Trend: 120</div>
<div>Image Type: Photo</div>
<div>Height: 3000</div>
<div><a href="https://www.strabospot.org/geimage/15960141115403"><img src="files/15960141115403.jpg"></a></div>
<div class="sectionTitle">15960140650459: </div>
<div>Width: 4000</div>
<div>Image Type: Photo</div>
<div>Height: 3000</div>
<div>View Azimuth Trend: 320</div>
<div><a href="https://www.strabospot.org/geimage/15960140650459"><img src="files/15960140650459.jpg"></a></div>
<div class="sectionTitle">15960140412003: </div>
<div>Width: 4000</div>
<div>Image Type: Photo</div>
<div>Height: 3000</div>
<div>View Azimuth Trend: 60</div>
<div><a href="https://www.strabospot.org/geimage/15960140412003"><img src="files/15960140412003.jpg"></a></div>
</div>
]]>
</description>
<styleUrl>#m_strabo_point</styleUrl>
<Point><coordinates>-0.401107,40.809522</coordinates></Point>
</Placemark>

<Placemark>
<name>15960145418499</name>
<description>
<![CDATA[
<img style="max-width:300px;" src="files/bubblehead.jpg">
<div class="spotTitle">Spot Name: 15960145418499</div>
<br>
<div>Created: 2020-07-29T09:22:21+00:00</div>
<div>Last Modified: 2020-07-29T09:26:30+00:00</div>
<div>Images:</div>
<div class="leftPad">
<div class="sectionTitle">15960147616319: </div>
<div>Width: 4000</div>
<div>Image Type: Photo</div>
<div>Height: 3000</div>
<div>View Azimuth Trend: 330</div>
<div><a href="https://www.strabospot.org/geimage/15960147616319"><img src="files/15960147616319.jpg"></a></div>
<div class="sectionTitle">15960147336421: </div>
<div>Width: 4000</div>
<div>Image Type: Photo</div>
<div>Height: 3000</div>
<div>View Azimuth Trend: 35</div>
<div><a href="https://www.strabospot.org/geimage/15960147336421"><img src="files/15960147336421.jpg"></a></div>
<div class="sectionTitle">15960146991959: </div>
<div>Width: 4000</div>
<div>Image Type: Photo</div>
<div>Height: 3000</div>
<div>View Azimuth Trend: 250</div>
<div><a href="https://www.strabospot.org/geimage/15960146991959"><img src="files/15960146991959.jpg"></a></div>
<div class="sectionTitle">15960146619187: </div>
<div>Width: 13568</div>
<div>Image Type: Photo</div>
<div>Height: 3584</div>
<div>View Azimuth Trend: 300</div>
<div><a href="https://www.strabospot.org/geimage/15960146619187"><img src="files/15960146619187.jpg"></a></div>
<div class="sectionTitle">15960145970858: </div>
<div>Width: 3000</div>
<div>Height: 4000</div>
<div>Image Type: Photo</div>
<div><a href="https://www.strabospot.org/geimage/15960145970858"><img src="files/15960145970858.jpg"></a></div>
</div>
]]>
</description>
<styleUrl>#m_strabo_point</styleUrl>
<Point><coordinates>-0.402523,40.809325</coordinates></Point>
</Placemark>

<Placemark>
<name>15960148912233</name>
<description>
<![CDATA[
<img style="max-width:300px;" src="files/bubblehead.jpg">
<div class="spotTitle">Spot Name: 15960148912233</div>
<br>
<div>Created: 2020-07-29T09:28:11+00:00</div>
<div>Last Modified: 2020-07-29T09:29:23+00:00</div>
<div>Orientations:</div>
<div class="leftPad">
<div class="sectionTitle">Planar Orientation: </div>
<div>Strike: 251</div>
<div>Dip Direction: 341</div>
<div>Dip: 83</div>
<div>Feature Type: Bedding</div>
<div>Quality: 4</div>
<div>Label: Bedding 251</div>
</div>
<div>Images:</div>
<div class="leftPad">
<div class="sectionTitle">15960149627884: </div>
<div>Width: 3000</div>
<div>Height: 4000</div>
<div>Image Type: Photo</div>
<div><a href="https://www.strabospot.org/geimage/15960149627884"><img src="files/15960149627884.jpg"></a></div>
</div>
]]>
</description>
<styleUrl>#m_strabo_point</styleUrl><Style><IconStyle><Icon><href>files/15960148912233.png</href></Icon></IconStyle></Style>
<Point><coordinates>-0.402073,40.80971</coordinates></Point>
</Placemark>

<Placemark>
<name>15960150457783</name>
<description>
<![CDATA[
<img style="max-width:300px;" src="files/bubblehead.jpg">
<div class="spotTitle">Spot Name: 15960150457783</div>
<br>
<div>Created: 2020-07-29T09:30:45+00:00</div>
<div>Last Modified: 2020-07-29T09:37:01+00:00</div>
<div>Images:</div>
<div class="leftPad">
<div class="sectionTitle">15960154087654: </div>
<div>Width: 13696</div>
<div>Image Type: Photo</div>
<div>Height: 3840</div>
<div>View Azimuth Trend: 270</div>
<div><a href="https://www.strabospot.org/geimage/15960154087654"><img src="files/15960154087654.jpg"></a></div>
<div class="sectionTitle">15960153517263: </div>
<div>Width: 4000</div>
<div>Image Type: Photo</div>
<div>Height: 3000</div>
<div>View Azimuth Trend: 340</div>
<div><a href="https://www.strabospot.org/geimage/15960153517263"><img src="files/15960153517263.jpg"></a></div>
<div class="sectionTitle">15960153161511: </div>
<div>Width: 4000</div>
<div>Image Type: Photo</div>
<div>Height: 3000</div>
<div>View Azimuth Trend: 235</div>
<div><a href="https://www.strabospot.org/geimage/15960153161511"><img src="files/15960153161511.jpg"></a></div>
<div class="sectionTitle">15960152919888: </div>
<div>Width: 4000</div>
<div>Image Type: Photo</div>
<div>Height: 3000</div>
<div>View Azimuth Trend: 250</div>
<div><a href="https://www.strabospot.org/geimage/15960152919888"><img src="files/15960152919888.jpg"></a></div>
</div>
]]>
</description>
<styleUrl>#m_strabo_point</styleUrl>
<Point><coordinates>-0.402087,40.80994</coordinates></Point>
</Placemark>

<Placemark>
<name>T1 29.7.</name>
<description>
<![CDATA[
<img style="max-width:300px;" src="files/bubblehead.jpg">
<div class="spotTitle">Spot Name: T1 29.7.</div>
<br>
<div>Created: 2020-07-29T09:38:04+00:00</div>
<div>Last Modified: 2020-07-29T18:19:04+00:00</div>
<div>Samples:</div>
<div class="leftPad">
<div class="sectionTitle">Sandstone T1 29.7.: </div>
<div>Sample Type: Field</div>
</div>
]]>
</description>
<styleUrl>#m_strabo_point</styleUrl>
<Point><coordinates>-0.402198,40.809946</coordinates></Point>
</Placemark>

<Placemark>
<name>15960155879957</name>
<description>
<![CDATA[
<img style="max-width:300px;" src="files/bubblehead.jpg">
<div class="spotTitle">Spot Name: 15960155879957</div>
<br>
<div>Created: 2020-07-29T09:39:47+00:00</div>
<div>Last Modified: 2020-07-29T09:41:36+00:00</div>
<div>Orientations:</div>
<div class="leftPad">
<div class="sectionTitle">Planar Orientation: </div>
<div>Label: 0</div>
<div>Strike: 250</div>
<div>Dip Direction: 340</div>
<div>Dip: 57</div>
<div>Quality: 4</div>
<div>Feature Type: Bedding</div>
</div>
<div>Images:</div>
<div class="leftPad">
<div class="sectionTitle">15960156356786: </div>
<div>Width: 3000</div>
<div>Height: 4000</div>
<div>Image Type: Photo</div>
<div><a href="https://www.strabospot.org/geimage/15960156356786"><img src="files/15960156356786.jpg"></a></div>
<div class="sectionTitle">15960156134984: </div>
<div>Width: 3000</div>
<div>Height: 4000</div>
<div>Image Type: Photo</div>
<div><a href="https://www.strabospot.org/geimage/15960156134984"><img src="files/15960156134984.jpg"></a></div>
</div>
]]>
</description>
<styleUrl>#m_strabo_point</styleUrl><Style><IconStyle><Icon><href>files/15960155879957.png</href></Icon></IconStyle></Style>
<Point><coordinates>-0.402216,40.810013</coordinates></Point>
</Placemark>

<Placemark>
<name>15960157993470</name>
<description>
<![CDATA[
<img style="max-width:300px;" src="files/bubblehead.jpg">
<div class="spotTitle">Spot Name: 15960157993470</div>
<br>
<div>Created: 2020-07-29T09:43:19+00:00</div>
<div>Last Modified: 2020-07-29T09:43:43+00:00</div>
<div>Images:</div>
<div class="leftPad">
<div class="sectionTitle">15960158221180: </div>
<div>Width: 3000</div>
<div>Height: 4000</div>
<div>Image Type: Photo</div>
<div><a href="https://www.strabospot.org/geimage/15960158221180"><img src="files/15960158221180.jpg"></a></div>
</div>
]]>
</description>
<styleUrl>#m_strabo_point</styleUrl>
<Point><coordinates>-0.402278,40.810426</coordinates></Point>
</Placemark>

<Placemark>
<name>15960159854128</name>
<description>
<![CDATA[
<img style="max-width:300px;" src="files/bubblehead.jpg">
<div class="spotTitle">Spot Name: 15960159854128</div>
<br>
<div>Created: 2020-07-29T09:46:25+00:00</div>
<div>Last Modified: 2020-07-29T09:50:50+00:00</div>
<div>Orientations:</div>
<div class="leftPad">
<div class="sectionTitle">Planar Orientation: </div>
<div>Strike: 246</div>
<div>Dip Direction: 336</div>
<div>Dip: 64</div>
<div>Quality: 2</div>
<div>Feature Type: Bedding</div>
<div>Label: Bedding 246</div>
</div>
<div>Images:</div>
<div class="leftPad">
<div class="sectionTitle">15960161132925: </div>
<div>Width: 13440</div>
<div>Image Type: Photo</div>
<div>Height: 3712</div>
<div>View Azimuth Trend: 10</div>
<div><a href="https://www.strabospot.org/geimage/15960161132925"><img src="files/15960161132925.jpg"></a></div>
<div class="sectionTitle">15960160199540: </div>
<div>Width: 4000</div>
<div>Image Type: Photo</div>
<div>Height: 3000</div>
<div>View Azimuth Trend: 80</div>
<div><a href="https://www.strabospot.org/geimage/15960160199540"><img src="files/15960160199540.jpg"></a></div>
</div>
]]>
</description>
<styleUrl>#m_strabo_point</styleUrl><Style><IconStyle><Icon><href>files/15960159854128.png</href></Icon></IconStyle></Style>
<Point><coordinates>-0.402045,40.810716</coordinates></Point>
</Placemark>

<Placemark>
<name>15960165170718</name>
<description>
<![CDATA[
<img style="max-width:300px;" src="files/bubblehead.jpg">
<div class="spotTitle">Spot Name: 15960165170718</div>
<br>
<div>Created: 2020-07-29T09:55:17+00:00</div>
<div>Last Modified: 2020-07-29T09:56:31+00:00</div>
<div>Orientations:</div>
<div class="leftPad">
<div class="sectionTitle">Planar Orientation: </div>
<div>Strike: 272</div>
<div>Dip Direction: 2</div>
<div>Dip: 74</div>
<div>Quality: 3</div>
<div>Feature Type: Bedding</div>
<div>Label: Bedding 272</div>
</div>
]]>
</description>
<styleUrl>#m_strabo_point</styleUrl><Style><IconStyle><Icon><href>files/15960165170718.png</href></Icon></IconStyle></Style>
<Point><coordinates>-0.401723,40.810818</coordinates></Point>
</Placemark>

<Placemark>
<name>15960167380941</name>
<description>
<![CDATA[
<img style="max-width:300px;" src="files/bubblehead.jpg">
<div class="spotTitle">Spot Name: 15960167380941</div>
<br>
<div>Created: 2020-07-29T09:58:58+00:00</div>
<div>Last Modified: 2020-07-29T09:59:18+00:00</div>
]]>
</description>
<styleUrl>#m_strabo_point</styleUrl>
<Point><coordinates>-0.401042,40.810993</coordinates></Point>
</Placemark>

<Placemark>
<name>15960167973427</name>
<description>
<![CDATA[
<img style="max-width:300px;" src="files/bubblehead.jpg">
<div class="spotTitle">Spot Name: 15960167973427</div>
<br>
<div>Created: 2020-07-29T09:59:57+00:00</div>
<div>Last Modified: 2020-07-29T10:00:21+00:00</div>
<div>Images:</div>
<div class="leftPad">
<div class="sectionTitle">15960168200956: </div>
<div>Width: 4000</div>
<div>Height: 3000</div>
<div>Image Type: Photo</div>
<div><a href="https://www.strabospot.org/geimage/15960168200956"><img src="files/15960168200956.jpg"></a></div>
</div>
]]>
</description>
<styleUrl>#m_strabo_point</styleUrl>
<Point><coordinates>-0.400855,40.811037</coordinates></Point>
</Placemark>

<Placemark>
<name>15960170167235</name>
<description>
<![CDATA[
<img style="max-width:300px;" src="files/bubblehead.jpg">
<div class="spotTitle">Spot Name: 15960170167235</div>
<br>
<div>Created: 2020-07-29T10:03:36+00:00</div>
<div>Last Modified: 2020-07-29T10:03:49+00:00</div>
<div>Images:</div>
<div class="leftPad">
<div class="sectionTitle">15960170286884: </div>
<div>Width: 3000</div>
<div>Height: 4000</div>
<div>Image Type: Photo</div>
<div><a href="https://www.strabospot.org/geimage/15960170286884"><img src="files/15960170286884.jpg"></a></div>
</div>
]]>
</description>
<styleUrl>#m_strabo_point</styleUrl>
<Point><coordinates>-0.400167,40.811292</coordinates></Point>
</Placemark>

<Placemark>
<name>15960171873619</name>
<description>
<![CDATA[
<img style="max-width:300px;" src="files/bubblehead.jpg">
<div class="spotTitle">Spot Name: 15960171873619</div>
<br>
<div>Created: 2020-07-29T10:06:27+00:00</div>
<div>Last Modified: 2020-07-29T10:09:52+00:00</div>
<div>Orientations:</div>
<div class="leftPad">
<div class="sectionTitle">Planar Orientation: </div>
<div>Strike: 53</div>
<div>Dip Direction: 143</div>
<div>Dip: 77</div>
<div>Quality: 4</div>
<div>Feature Type: Bedding</div>
<div>Label: Bedding 53</div>
</div>
<div>Images:</div>
<div class="leftPad">
<div class="sectionTitle">15960173626949: </div>
<div>Width: 4000</div>
<div>Image Type: Photo</div>
<div>Height: 3000</div>
<div>View Azimuth Trend: 80</div>
<div><a href="https://www.strabospot.org/geimage/15960173626949"><img src="files/15960173626949.jpg"></a></div>
<div class="sectionTitle">15960173527588: </div>
<div>Width: 4000</div>
<div>Image Type: Photo</div>
<div>Height: 3000</div>
<div>View Azimuth Trend: 80</div>
<div><a href="https://www.strabospot.org/geimage/15960173527588"><img src="files/15960173527588.jpg"></a></div>
<div class="sectionTitle">15960172182348: </div>
<div>Width: 3000</div>
<div>Height: 4000</div>
<div>Image Type: Photo</div>
<div><a href="https://www.strabospot.org/geimage/15960172182348"><img src="files/15960172182348.jpg"></a></div>
</div>
]]>
</description>
<styleUrl>#m_strabo_point</styleUrl><Style><IconStyle><Icon><href>files/15960171873619.png</href></Icon></IconStyle></Style>
<Point><coordinates>-0.399925,40.811142</coordinates></Point>
</Placemark>

<Placemark>
<name>15960174868949</name>
<description>
<![CDATA[
<img style="max-width:300px;" src="files/bubblehead.jpg">
<div class="spotTitle">Spot Name: 15960174868949</div>
<br>
<div>Created: 2020-07-29T10:11:26+00:00</div>
<div>Last Modified: 2020-07-29T10:11:52+00:00</div>
]]>
</description>
<styleUrl>#m_strabo_point</styleUrl>
<Point><coordinates>-0.399605,40.810815</coordinates></Point>
</Placemark>

<Placemark>
<name>Sample location T2 29.7.</name>
<description>
<![CDATA[
<img style="max-width:300px;" src="files/bubblehead.jpg">
<div class="spotTitle">Spot Name: Sample location T2 29.7.</div>
<br>
<div>Created: 2020-07-29T10:15:29+00:00</div>
<div>Last Modified: 2020-07-29T18:21:21+00:00</div>
<div>Samples:</div>
<div class="leftPad">
<div class="sectionTitle">T2 29.7.: </div>
<div>Sample Type: Field</div>
</div>
<div>Images:</div>
<div class="leftPad">
<div class="sectionTitle">15960182144777: </div>
<div>Width: 4000</div>
<div>Height: 3000</div>
<div>Image Type: Photo</div>
<div><a href="https://www.strabospot.org/geimage/15960182144777"><img src="files/15960182144777.jpg"></a></div>
<div class="sectionTitle">15960177635107: </div>
<div>Width: 4000</div>
<div>Height: 3000</div>
<div>Image Type: Photo</div>
<div><a href="https://www.strabospot.org/geimage/15960177635107"><img src="files/15960177635107.jpg"></a></div>
</div>
]]>
</description>
<styleUrl>#m_strabo_point</styleUrl>
<Point><coordinates>-0.399385,40.810824</coordinates></Point>
</Placemark>

<Placemark>
<name>15960182342126</name>
<description>
<![CDATA[
<img style="max-width:300px;" src="files/bubblehead.jpg">
<div class="spotTitle">Spot Name: 15960182342126</div>
<br>
<div>Created: 2020-07-29T10:23:54+00:00</div>
<div>Last Modified: 2020-07-29T10:28:09+00:00</div>
<div>Images:</div>
<div class="leftPad">
<div class="sectionTitle">15960184728760: </div>
<div>Width: 4000</div>
<div>Image Type: Photo</div>
<div>Height: 3000</div>
<div>View Azimuth Trend: 70</div>
<div><a href="https://www.strabospot.org/geimage/15960184728760"><img src="files/15960184728760.jpg"></a></div>
<div class="sectionTitle">7: </div>
<div>Width: 4000</div>
<div>Image Type: Photo</div>
<div>Height: 3000</div>
<div><a href="https://www.strabospot.org/geimage/15960184290397"><img src="files/15960184290397.jpg"></a></div>
<div class="sectionTitle">15960183840400: </div>
<div>Width: 4000</div>
<div>Image Type: Photo</div>
<div>Height: 3000</div>
<div>View Azimuth Trend: 265</div>
<div><a href="https://www.strabospot.org/geimage/15960183840400"><img src="files/15960183840400.jpg"></a></div>
<div class="sectionTitle">15960183198511: </div>
<div>Width: 4000</div>
<div>Image Type: Photo</div>
<div>Height: 3000</div>
<div>View Azimuth Trend: 250</div>
<div><a href="https://www.strabospot.org/geimage/15960183198511"><img src="files/15960183198511.jpg"></a></div>
</div>
]]>
</description>
<styleUrl>#m_strabo_point</styleUrl>
<Point><coordinates>-0.395143,40.81185</coordinates></Point>
</Placemark>

		<ScreenOverlay>
								  <Style>
									<ListStyle>
									  <ItemIcon>
										<href>
										  <a href="http://www.earthchemportal.org">EarthChem</a>
										</href>
									  </ItemIcon>
									  <listItemType>checkHideChildren</listItemType>
									</ListStyle>
								  </Style>
								  <name>
									<a href="httpS://www.strabospot.org">StraboSpot</a>
								  </name>
								  <Icon>
									<href>files/overlay.jpg</href>
								  </Icon>
								  <overlayXY x="0.01" y="0.035" xunits="fraction" yunits="fraction" />
								  <screenXY x="0.01" y="0.035" xunits="fraction" yunits="fraction" />
								  <size x="300" y="55" xunits="pixels" yunits="pixels" />
								</ScreenOverlay>

							</Folder>
						</Document>
						</kml>